<?xml version="1.0" encoding="utf-8"?>
<!-- Generator: Adobe Illustrator 21.1.0, SVG Export Plug-In . SVG Version: 6.00 Build 0)  -->
<svg version="1.1" id="Layer_1" xmlns="http://www.w3.org/2000/svg" xmlns:xlink="http://www.w3.org/1999/xlink" x="0px" y="0px"
	 width="96px" height="96px" viewBox="0 0 96 96" style="enable-background:new 0 0 96 96;" xml:space="preserve">
<style type="text/css">
	.st0{fill:#263950;}
	.st1{fill:#FFFFFF;stroke:#263950;stroke-width:0.5;stroke-miterlimit:10;}
</style>
<title>auto-fire</title>
<g>
	<path class="st0" d="M35.2,63.1c-0.6,1.3-6.9-1.3-7.5-2.4s-1.9-3.1-0.6-3.1s8.1,2.4,8.1,2.4C36,60.6,35.8,61.9,35.2,63.1z
		 M51.7,45.3C50.8,46,50.2,46.9,50,48c-0.4,0.7-1.2,1.1-2,1.2c-0.7,0-1.9-0.4-2-1.2c-0.3-1-0.9-1.9-1.7-2.6c-1.9-1.3-7.5-1.3-10,0.6
		c-0.9,0.5-1.5,1.5-1.5,2.6c0,0.7-0.5,1.3-1.2,1.4l-1.2,0.3c0.4-1.9,1.6-6.1,3.5-7.5c1.5-1.3,8.8-1.9,14.5-1.7h0.1
		c5.5-0.1,12.4,0.5,13.9,1.7c1.7,1.3,3,5.2,3.5,7.6h-0.2l-1.2-0.3c-0.7-0.1-1.2-0.7-1.3-1.5c0-1.1-0.6-2.1-1.5-2.6
		C59.2,44.1,53.6,44.1,51.7,45.3z M67.7,60.6c-0.6,1.3-6.8,3.7-7.5,2.4s-0.8-2.4,0-3.1c0,0,6.8-2.4,8.1-2.4S68.3,59.4,67.7,60.6
		L67.7,60.6z M76.4,50.6c-0.7-2.4-4.2-1.9-6.3-1.3c-0.4-1.9-1.9-7.4-5-10c-0.6-0.5-4.4-3-16.7-2.7c-2.3,0-4.6,0.1-6.9,0.3
		c-7,0.4-9.3,1.6-10.4,2.4c-3.1,2.4-4.6,8.1-5.1,10c-2-0.5-5.8-1.2-6.4,1.3c-0.4,1.7,0.9,2.4,2.1,2.8c0.8,0.2,1.2,1,1,1.8
		c0,0,0,0.1,0,0.1c-0.3,1.1-0.6,2.2-0.7,3.3v11.7c0,0.8,0.7,1.5,1.5,1.5h6.8c0.8,0,1.5-0.7,1.5-1.5v-1.5c0,0.6,10.2,1.3,15.9,1.3
		s15.9-0.6,15.9-1.3v1.5c0,0.8,0.7,1.5,1.5,1.5H72c0.8,0,1.5-0.7,1.5-1.5V58.7c0-1.1-0.3-2.3-0.7-3.3c-0.2-0.8,0.2-1.6,1-1.9
		C75.4,53,76.9,52.4,76.4,50.6L76.4,50.6z"/>
	<path class="st1" d="M64.9,45.6L64.9,45.6c-1.7,3.8-1.8,4.2-4.1,5.6c0.2-2.2,1-4.1,0.4-6c-0.2-1-0.5-2-0.8-3
		c-1-2.3-1.5-2.4-3.1-0.2c-2.9,3.9-2.6,9.9,0.6,14.2c0.2,0.5,1,0.8,1,1.8c-3.3-0.1-6.3-1-8.5-3.5c-3.1-3.6-2.6-7.8-1.9-12.3
		c1.1,0.7,1.3,1.8,1.9,2.5c1,1,1.5,1,2.2-0.4c0.6-1.4,0.6-2.9,0-4.3c-1.1-2.3-0.6-4.5,0.2-6.8c1.2-3.2,3.1-6,5.5-8.4
		c0.4-0.4,0.6-1,1.2-0.8s0.4,0.8,0.4,1.2c0.1,1.9,1.2,3.5,2.2,5c1.9,3,3.4,6.1,1.9,9.9c1.7-1.2,2.2-1.9,3.2-5.5
		c2.8,3.2,4.1,6.6,2.6,10.9c1.6-0.8,2-2.3,2.6-3.6c4.1,6.7-1.6,15.7-10.5,16.3C65.6,54.6,66.2,50.6,64.9,45.6L64.9,45.6z"/>
</g>
</svg>
