<?xml version="1.0" encoding="utf-8"?>
<!-- Generator: Adobe Illustrator 21.1.0, SVG Export Plug-In . SVG Version: 6.00 Build 0)  -->
<svg version="1.1" id="Layer_1" xmlns="http://www.w3.org/2000/svg" xmlns:xlink="http://www.w3.org/1999/xlink" x="0px" y="0px"
	 width="96px" height="96px" viewBox="0 0 96 96" style="enable-background:new 0 0 96 96;" xml:space="preserve">
<style type="text/css">
	.st0{fill:#FFFFFF;}
	.st1{fill:#263950;}
	.st2{fill:#FEFEFE;}
</style>
<title>accidental-breakage-glass</title>
<polygon class="st0" points="54,68.2 54,68.2 54,67.2 53,67.2 53,66.6 54,66.6 54,65.5 54.7,65.5 54.7,66.6 55.7,66.6 55.7,67.2 
	54.7,67.2 54.7,68.2 "/>
<g>
	<path class="st1" d="M24.8,44.7l23.1-16.5l23.3,16.5V76h-9.1L62,55.1H51.3V76H24.8V44.7z M45.9,66.4V55.8c0-0.4-0.3-0.7-0.7-0.7
		c0,0,0,0,0,0H34.7c-0.4,0-0.7,0.3-0.7,0.7c0,0,0,0,0,0v10.6c0,0.4,0.3,0.7,0.7,0.7c0,0,0,0,0,0h10.6C45.7,67,45.9,66.8,45.9,66.4z"
		/>
	<path class="st1" d="M60.9,28.7V23h7.2v11l10.7,7.7c1,0.8,1.2,2.1,0.6,3.2c-0.4,0.6-1.1,1-1.9,1c-0.5,0-1-0.2-1.3-0.5L48,25.2
		L19.9,45.4c-0.9,0.7-2.2,0.6-3-0.3c-0.1-0.1-0.2-0.2-0.2-0.3c-0.7-0.9-0.6-2.2,0.3-3c0.1-0.1,0.2-0.2,0.3-0.2l29.5-21.2
		c0.8-0.6,1.9-0.6,2.7,0L60.9,28.7z"/>
</g>
<g>
	<path class="st1" d="M36.4,61.7L36.4,61.7l0.9,0.6l0,0h0.2l0.4,0.7l0.1-0.6l0.8,0.1l0.3,0.2l0.4,0.4l-0.8,1.1l-0.1,0.1l0,0V65
		l-1.3,1.3l1.4-1.1l0,0l0.2-1l1-0.9l0.6-0.2l0.3,0.3l0.3-0.2L41,64l-0.3,1.3l-0.1,0.1l0.1,0.1l1.1,1.2L41,65.2l0.4-1.3l0,0l0.1-0.9
		l1.4,0.7l0.1,0.1l0,0h1.7L43,63.4l-1-0.7l0.2-1l1.3-1.2L42,61.1l-0.5,0c0.3-1,0.8-1.6,1.1-2.7l-1.5,2l0-0.2l-0.8,0.2L39,55.7
		l0.8,4.6L39,60.1l-2-1.5l1.8,2.1l0.2,1l-1,0.2h-0.5l-1-0.4l-0.1-0.1l-0.1,0.1l-0.7,0.5L36.4,61.7z"/>
	<polygon class="st2" points="40.3,60.9 40.3,60.9 40.9,60.7 41,61.3 41.6,61.4 41.6,61.7 41.8,61.9 41.4,62.5 41,62.3 40.5,62.5 
		39.9,62.2 39.7,62.7 39.1,61.8 39.6,61.5 39.4,60.5 	"/>
</g>
</svg>
