<?xml version="1.0" encoding="utf-8"?>
<!-- Generator: Adobe Illustrator 21.0.0, SVG Export Plug-In . SVG Version: 6.00 Build 0)  -->
<svg version="1.1" id="Layer_1" xmlns="http://www.w3.org/2000/svg" xmlns:xlink="http://www.w3.org/1999/xlink" x="0px" y="0px"
	 width="96px" height="96px" viewBox="0 0 96 96" enable-background="new 0 0 96 96" xml:space="preserve">
<path fill="#D9DDE0" d="M3,0h90c1.7,0,3,1.3,3,3v90c0,1.7-1.3,3-3,3H3c-1.7,0-3-1.3-3-3V3C0,1.3,1.3,0,3,0z"/>
<path id="smoke-2" fill="#324357" d="M71,40c0,0,4.6,7.6-3,14c0,0,0.6-3.4-1-5s-9-8-9-8s-4.8-5,4-13c-0.3,2.9-1.3,3.2,2,6
	C73.7,40.8,71,40,71,40z M64,55h1v5h-1v2H23v-9h41V55z M62,56H36v3h26V56z"/>
</svg>
