<?xml version="1.0" encoding="utf-8"?>
<!-- Generator: Adobe Illustrator 21.0.0, SVG Export Plug-In . SVG Version: 6.00 Build 0)  -->
<svg version="1.1" id="Layer_1" xmlns="http://www.w3.org/2000/svg" xmlns:xlink="http://www.w3.org/1999/xlink" x="0px" y="0px"
	 width="96px" height="96px" viewBox="0 0 96 96" enable-background="new 0 0 96 96" xml:space="preserve">
<path fill="#324357" d="M93,96H3c-1.7,0-3-1.3-3-3V3c0-1.7,1.3-3,3-3h90c1.7,0,3,1.3,3,3v90C96,94.7,94.7,96,93,96z"/>
<path id="box" fill="#D9DDE0" d="M44,71V54l30-13v17L44,71z M25,44l28-12l19,8L43,52L25,44z M42,71l-18-8V46l18,8V71z"/>
</svg>
