<?xml version="1.0" encoding="utf-8"?>
<!-- Generator: Adobe Illustrator 21.0.0, SVG Export Plug-In . SVG Version: 6.00 Build 0)  -->
<svg version="1.1" id="Layer_1" xmlns="http://www.w3.org/2000/svg" xmlns:xlink="http://www.w3.org/1999/xlink" x="0px" y="0px"
	 width="96px" height="96px" viewBox="0 0 96 96" enable-background="new 0 0 96 96" xml:space="preserve">
<path fill="#324357" d="M93,96H3c-1.7,0-3-1.3-3-3V3c0-1.7,1.3-3,3-3h90c1.7,0,3,1.3,3,3v90C96,94.7,94.7,96,93,96z"/>
<path id="House" fill="#D9DDE0" d="M74.4,49.2l-4.3,4.3L66,49.4V75H29V49.9l-3.6,3.6L21,49.2l22.4-22.4l0,0l4.3-4.3l4.3,4.3l0,0
	l4.9,4.9V29c0-1.7,1.3-3,3-3s3,1.3,3,3v7c0,0.5-0.1,1-0.3,1.4L74.4,49.2z M32,46.9V72h10v-9.5c0-3,2.5-5.5,5.5-5.5s5.5,2.5,5.5,5.5
	V72h10V46.4L47.7,31.1L32,46.9z M48.5,50c-1.9,0-3.5-1.6-3.5-3.5s1.6-3.5,3.5-3.5s3.5,1.6,3.5,3.5l0,0C52,48.4,50.4,50,48.5,50z"/>
</svg>
