<?xml version="1.0" encoding="utf-8"?>
<!-- Generator: Adobe Illustrator 21.0.0, SVG Export Plug-In . SVG Version: 6.00 Build 0)  -->
<svg version="1.1" id="Layer_1" xmlns="http://www.w3.org/2000/svg" xmlns:xlink="http://www.w3.org/1999/xlink" x="0px" y="0px"
	 width="96px" height="96px" viewBox="0 0 96 96" enable-background="new 0 0 96 96" xml:space="preserve">
<path fill="#D9DDE0" d="M3,0h90c1.7,0,3,1.3,3,3v90c0,1.7-1.3,3-3,3H3c-1.7,0-3-1.3-3-3V3C0,1.3,1.3,0,3,0z"/>
<path id="secure-2" fill="#324357" d="M65,75H36c-1.7,0-4-2.3-4-4V45.5c-2-1.6-5-6.5-5-6.5V26c0-1.7,2.3-4,4-4h2
	c0.6,0.2,1.4,0.2,2,0h30c1.7,0,4,2.3,4,4v45C69,72.7,66.7,75,65,75z M65,26H36v45h29V26z M51,56h2l3,11H46l3-11H51z M47,52
	c0-2.2,1.8-4,4-4s4,1.8,4,4s-1.8,4-4,4S47,54.2,47,52z"/>
</svg>
