<?xml version="1.0" standalone="no"?>
<!DOCTYPE svg PUBLIC "-//W3C//DTD SVG 1.1//EN" "http://www.w3.org/Graphics/SVG/1.1/DTD/svg11.dtd" >
<svg xmlns="http://www.w3.org/2000/svg">
<metadata>Generated by IcoMoon</metadata>
<defs>
<font id="font-FSA" horiz-adv-x="1024">
<font-face units-per-em="1024" ascent="960" descent="-64" />
<missing-glyph horiz-adv-x="1024" />
<glyph unicode="&#x20;" horiz-adv-x="512" d="" />
<glyph unicode="&#xe900;" glyph-name="FSA-heart" horiz-adv-x="1083" d="M857.084 385.384l-85.944-94.537c-6.139-7.379-15.961-11.050-25.796-9.822-9.822 1.228-18.416 6.139-23.315 14.721l-69.983 122.777-67.527-89.627c-7.367-9.822-19.644-13.506-30.694-12.277-11.050 2.455-20.871 11.050-23.328 22.1l-51.566 207.505-67.527-317.991c-2.455-13.506-14.733-23.315-28.238-24.555-1.228 1.228-1.228 1.228-2.455 1.228-13.506 0-24.555 8.594-29.467 20.871l-77.35 244.325-58.933-74.894c-6.139-7.379-14.733-11.050-24.555-11.050h-16.022c143.783-195.719 347.519-459.184 364.708-459.184 18.061 0 223.134 264.914 367.065 460.412h-49.074zM803.063 948.928c-106.816 0-200.125-63.844-240.643-157.154 0 0-7.379-20.871-22.1-20.871-15.961 0-22.1 20.871-22.1 20.871-40.516 92.082-132.598 157.154-240.643 157.154-146.104 1.228-263.969-116.637-263.969-261.514 0-33.15 0-60.16 20.871-101.904 8.631-17.594 45.28-70.854 95.165-139.965h46.029l85.944 108.043c7.367 8.594 18.416 13.506 29.467 11.050s19.644-9.822 23.328-20.871l60.16-187.848 71.211 335.18c2.455 13.506 14.733 24.555 29.467 24.555s27.011-9.822 30.694-23.328l67.527-273.791 56.477 74.894c6.139 8.594 15.961 12.277 25.783 12.277s19.657-6.139 24.555-14.733l73.666-127.688 67.527 73.666c6.139 6.139 13.518 9.822 22.1 9.822h105.588c0.59 0 1.13-0.135 1.695-0.172 49.332 68.178 85.502 120.554 94.071 137.682 13.506 31.922 20.871 66.299 20.871 101.904 0 144.877-117.865 262.742-262.742 262.742z" />
<glyph unicode="&#xe901;" glyph-name="FSA-agent" horiz-adv-x="956" d="M465.185 458.022c-129.751 0-235.591 105.84-235.591 235.591s105.84 235.591 235.591 235.591 235.591-105.84 235.591-235.591-105.84-235.591-235.591-235.591zM465.185 865.911c-94.94 0-172.298-77.359-172.298-172.298s77.359-172.298 172.298-172.298 172.298 77.359 172.298 172.298-77.359 172.298-172.298 172.298zM915.622-54.654l-94.589 94.589c19.339 25.317 30.592 56.964 30.592 91.072 0 83.336-67.865 151.201-151.201 151.201s-151.201-67.865-151.201-151.201 67.865-151.201 151.201-151.201c28.833 0 55.909 8.088 78.764 22.152l96.698-96.698 39.734 40.086zM605.837 131.006c0 52.392 42.547 94.94 94.94 94.94s94.94-42.547 94.94-94.94-42.547-94.94-94.94-94.94-94.94 42.547-94.94 94.94zM496.832-23.71c0 0-0.352 0 0 0l-404.373 0.703c-17.582 0-31.647 14.065-31.647 31.647 0 102.675 42.195 200.077 118.498 274.622 76.655 74.546 177.925 115.686 285.171 115.686 48.876 0 96.698-8.088 142.409-24.263 16.527-5.977 24.966-23.911 19.339-40.437-5.977-16.527-23.911-24.966-40.437-19.339-38.679 13.714-79.468 20.746-120.961 20.746-90.72 0-176.166-34.812-241.218-97.753-56.26-54.503-90.369-123.773-97.753-197.616l371.32-0.703c17.582 0 31.647-14.065 31.647-31.647-0.703-17.23-14.769-31.647-31.998-31.647z" />
<glyph unicode="&#xe902;" glyph-name="FSA-lock" horiz-adv-x="956" d="M574.010 291.766c0 51.95-42.164 94.115-94.115 94.115s-94.115-42.164-94.115-94.115c0-33.88 18.071-63.997 45.175-80.562v-66.256c0-24.845 20.328-45.175 45.175-45.175h7.528c24.845 0 45.175 20.328 45.175 45.175v66.256c27.105 16.565 45.175 46.68 45.175 80.562zM786.709 560.932h-22.586v111.056c0 158.865-129.126 287.991-287.991 287.991s-287.991-129.126-287.991-287.991v-111.056h-18.824c-41.411 0-75.291-33.88-75.291-75.291v-474.335c0-41.411 33.88-75.291 75.291-75.291h617.39c41.411 0 75.291 33.88 75.291 75.291v474.335c0 41.411-33.88 75.291-75.291 75.291zM278.491 671.988c0 108.795 88.843 197.64 197.64 197.64s197.64-88.843 197.64-197.64v-111.056h-395.279v111.056zM801.768 11.304c0-8.281-6.776-15.058-15.058-15.058h-617.39c-8.281 0-15.058 6.776-15.058 15.058v474.335c0 8.281 6.776 15.058 15.058 15.058h617.39c8.281 0 15.058-6.776 15.058-15.058v-474.335z" />
<glyph unicode="&#xe903;" glyph-name="FSA-auto" horiz-adv-x="1083" d="M1081.42 516.129c-13.082 46.38-80.867 35.675-120.111 26.164-8.323 38.057-35.675 142.709-95.141 190.277-11.893 9.512-83.248 57.085-317.525 51.138-8.323 0-66.596 1.189-132.004-3.57-134.386-8.323-177.196-30.921-197.412-47.569-59.462-47.569-88.002-153.409-95.141-191.465-39.245 9.512-109.411 21.405-122.492-26.164-8.323-32.11 17.84-47.569 40.433-53.515 15.459-4.758 24.975-21.405 19.028-36.868-5.947-20.216-13.082-45.191-13.082-63.031 0-35.675 0-83.248 0-83.248v-136.763c0-16.652 13.082-29.728 29.728-29.728h130.816c16.652 0 29.728 13.082 29.728 29.728 0 13.082 0 26.164 0 29.728 0-11.893 195.036-23.786 302.066-23.786s302.066 11.893 302.066 23.786c0-3.57 0-16.652 0-29.728 0-16.652 13.082-29.728 29.728-29.728h130.816c16.652 0 29.728 13.082 29.728 29.728v136.763c0 0 0 47.569 0 83.248 0 19.028-5.947 44.003-13.082 63.031-4.758 15.459 3.57 32.11 19.028 36.868 24.975 8.323 51.138 22.594 42.814 54.703zM297.711 278.284c-11.893-23.786-130.816 23.786-142.709 47.569s-35.675 59.462-11.893 59.462 154.602-47.569 154.602-47.569c15.459-11.893 11.893-35.675 0-59.462zM611.67 617.213c-20.216-13.082-28.54-33.298-32.11-49.95-3.57-13.082-24.975-21.405-38.057-21.405s-34.487 8.323-38.057 21.405c-3.57 15.459-13.082 35.675-32.11 49.95-35.675 23.786-142.709 23.786-190.277-11.893-23.786-17.84-29.728-35.675-29.728-48.757 0-14.27-10.705-26.164-23.786-28.54l-22.594-4.758c8.323 35.675 30.921 116.546 66.596 143.897 29.728 23.786 166.492 35.675 275.903 32.11h2.377c104.653 2.377 235.468-9.512 264.010-32.11 32.11-26.164 57.085-98.706 66.596-145.086 0 0-1.189 0-1.189 0l-22.594 4.758c-13.082 2.377-23.786 14.27-23.786 28.54 0 13.082-5.947 30.921-29.728 48.757-48.757 36.868-155.791 36.868-191.465 13.082zM914.928 325.852c-11.893-23.786-130.816-71.355-142.709-47.569s-16.652 47.569 0 59.462c0 0 130.816 47.569 154.602 47.569s0-35.675-11.893-59.462z" />
<glyph unicode="&#xe904;" glyph-name="FSA-event" horiz-adv-x="1083" d="M505.142-61.688c-10.922 0-21.844 3.64-29.126 12.136-25.484 25.484-66.745 25.484-92.229 0-15.776-15.776-42.475-15.776-59.463 0l-281.543 281.543c-15.776 15.776-15.776 42.475 0 59.463 25.484 25.484 25.484 66.745 0 92.229-15.776 15.776-15.776 42.475 0 59.463l507.261 507.261c15.776 15.776 42.475 15.776 59.463 0 25.484-25.484 66.745-25.484 92.229 0 15.776 15.776 42.475 15.776 59.463 0l281.543-281.543c15.776-15.776 15.776-42.475 0-59.463-25.484-25.484-25.484-66.745 0-92.229 15.776-15.776 15.776-42.475 0-59.463l-508.475-507.261c-7.282-8.495-18.202-12.136-29.126-12.136zM126.516 265.968l231.788-231.788c44.902 24.27 98.298 24.27 143.2 0l457.507 457.507c-12.136 21.844-18.202 46.115-18.202 71.599s6.068 49.754 18.202 71.599l-231.788 230.574c-21.844-12.136-46.115-18.202-71.599-18.202s-49.754 6.068-71.599 18.202l-457.507-457.507c24.27-43.686 24.27-98.298 0-141.985zM425.047 132.478l-200.236 200.236c-24.27 24.27-24.27 61.891 0 86.163l349.501 349.501c24.27 24.27 61.891 24.27 86.163 0l200.236-200.236c24.27-24.27 24.27-61.891 0-86.163l-350.714-349.501c-23.058-24.27-61.891-24.27-84.948 0zM393.495 346.061l251.203 251.203c12.136 12.136 12.136 30.339 0 42.475s-30.339 12.136-42.475 0l-251.203-251.203c-12.136-12.136-12.136-30.339 0-42.475 6.068-6.068 13.351-8.495 20.63-8.495s15.776 2.426 21.844 8.495zM537.908 319.365l133.49 133.49c12.136 12.136 12.136 30.339 0 42.475s-30.339 12.136-42.475 0l-133.49-133.49c-12.136-12.136-12.136-30.339 0-42.475 6.068-6.068 13.351-8.495 20.63-8.495s15.776 2.426 21.844 8.495z" />
<glyph unicode="&#xe905;" glyph-name="FSA-house" horiz-adv-x="1083" d="M146.135 503.991l392.541 281.997 395.924-281.997v-533.538h-154.534l-1.125 356.445h-182.734v-356.445h-450.068v533.538zM504.836 136.265v180.477c0 6.77-4.511 11.28-11.28 11.28h-180.477c-6.77 0-11.28-4.511-11.28-11.28v-180.477c0-6.77 4.511-11.28 11.28-11.28h180.477c6.77 0 11.28 4.511 11.28 11.28zM762.016 775.835v98.136h122.951v-186.119l181.607-130.847c18.048-12.408 21.432-37.224 9.024-55.272-7.896-11.28-20.306-16.92-31.584-16.92-7.896 0-15.792 2.256-22.557 7.896l-480.523 344.037-478.268-344.037c-18.048-13.536-42.864-9.024-55.272 9.024s-9.024 42.864 9.024 55.272l501.955 360.956c13.536 10.153 32.711 10.153 46.247 0l197.398-142.128z" />
<glyph unicode="&#xe906;" glyph-name="FSA-key" horiz-adv-x="1083" d="M727.778 959.983c-180.119 0-326.926-146.808-326.926-326.926 0-44.411 8.635-86.359 24.674-124.601l-397.245-397.245v-175.183h150.509v123.368h123.368v123.368h135.705l152.976 152.976c41.944-19.739 87.592-29.608 136.937-29.608 180.119 0 326.926 146.808 326.926 326.926 0 181.352-146.808 326.926-326.926 326.926zM814.134 602.216c-57.983 0-104.862 46.879-104.862 106.096 0 57.983 46.879 104.862 104.862 104.862s104.862-46.879 104.862-104.862c0-59.217-46.879-106.096-104.862-106.096z" />
<glyph unicode="&#xe907;" glyph-name="FSA-plane" horiz-adv-x="1083" d="M1027.74 939.654c-38.221 38.221-92.47 14.794-114.664-7.399-12.328-12.328-215.766-205.902-215.766-205.902l-532.633 82.608-76.442-92.47 413.037-184.942-292.209-311.936-173.846-28.358v-61.648l145.489-46.852 59.182-146.721h61.648l14.794 176.312 305.771 293.441 183.71-417.969 91.239 77.675-69.046 538.798c0 0 181.242 208.369 191.107 218.232 24.659 23.427 45.62 78.908 8.631 117.128z" />
<glyph unicode="&#xe908;" glyph-name="FSA-facebook" d="M375.159-50.347v546.031h-91.238v127.181h91.204v29.047c0 87.108 23.484 174.182 81.579 229.478 49.801 46.967 116.122 64.956 175.514 64.956 45.636 0 81.545-7.27 107.827-15.565l-11.059-122.88c-19.354 6.929-33.143 11.332-64.887 11.332-84.343 0-120.286-78.848-120.286-161.758v-34.577h146.5v-127.181h-145.101v-546.065h-170.052z" />
<glyph unicode="&#xe909;" glyph-name="FSA-google-plus" d="M322.954 503.532v-128h174.474c-27.175-83.102-70.105-128.394-174.474-128.394-106.147 0-192.197 86.049-192.197 192.197s86.049 192.197 192.197 192.197c0.769 0.012 1.676 0.018 2.585 0.018 47.278 0 90.363-17.954 122.809-47.415 26.237 26.917 24.267 30.461 91.615 94.658-57.117 51.792-133.282 83.495-216.851 83.495-178.58 0-323.348-144.768-323.348-323.348 0-178.386 144.453-323.033 322.765-323.347 266.664 0 332.043 232.763 310.381 387.545zM905.058 497.231v112.246h-79.951v-112.246h-115.003v-80.345h115.003v-115.397h79.951v115.397h112.246v80.345h-112.246z" />
<glyph unicode="&#xe90a;" glyph-name="FSA-linkedin" d="M40.175 644.915h186.197v-663.757h-186.197v663.757zM990.515-18.842h-180.804v338.773c0 71.68-3.755 117.999-11.639 139.025-7.68 21.026-20.139 37.376-37.581 49.084-17.442 11.639-38.298 17.51-62.703 17.51-31.403 0-59.494-8.363-84.309-24.986-24.883-16.691-41.984-38.741-51.2-66.219-9.25-27.511-13.79-78.37-13.79-152.576v-300.578h-180.873v663.723h167.936v-97.485c59.631 74.991 134.724 112.503 225.212 112.503 39.902 0 76.39-6.997 109.397-20.958s57.993-31.778 74.991-53.419c16.862-21.675 28.74-46.217 35.396-73.728 6.588-27.511 9.899-66.867 9.899-118.135v-412.535zM238.285 812.442c0-56.554-45.846-102.4-102.4-102.4s-102.4 45.846-102.4 102.4c0 56.554 45.846 102.4 102.4 102.4s102.4-45.846 102.4-102.4z" />
<glyph unicode="&#xe90b;" glyph-name="FSA-newsfeed" d="M85.333 874.667v-171.11c181.828-0.785 352.666-71.817 481.417-200.363 128.887-128.785 200.055-299.827 200.567-481.86h171.349c-1.126 470.391-382.43 851.695-853.333 853.333zM200.977 252.279c-63.898 0-115.644-51.712-115.644-115.473 0-63.727 51.746-115.473 115.644-115.473s115.61 51.746 115.61 115.473c-0.034 63.761-51.712 115.473-115.61 115.473zM85.333 583.817v-171.11c215.108-2.185 389.666-176.538 391.885-391.373h171.281c-2.253 309.658-253.099 560.265-563.166 562.483z" />
<glyph unicode="&#xe90c;" glyph-name="FSA-twitter" d="M861.867 617.847c0-86.81-70.374-157.184-157.184-157.184s-157.184 70.374-157.184 157.184c0 86.81 70.374 157.184 157.184 157.184s157.184-70.374 157.184-157.184zM905.25 707.618l-77.38-66.56-26.351-8.943-7.441-27.955-78.029-16.998 33.963 72.294-40.346 68.949 79.258-9.967 95.334 35.567-41.984-51.644zM846.814 549.615c-95.164-622.012-788.992-384.137-741.922-383.283 148.343 3.174 222.788-4.642 246.374 149.436 23.552 154.146 33.451 103.868 181.794 146.193 143.872 41.028 337.271 241.732 313.754 87.654zM426.974 366.865c-8.055-38.81 83.422-90.795-140.595-44.305-69.598 14.473-119.501 57.754-111.411 96.666s-4.642-9.865 64.99-24.303c69.564-14.473 195.106 10.889 187.017-28.058zM626.62 524.288c-33.314-93.662 94.447-224.802-259.345-99.157-109.773 39.014-171.861 146.807-138.581 240.538 33.382 93.798-12.766-23.586 97.143-62.669 109.909-39.049 334.029 15.053 300.783-78.711zM439.262 442.948c-17.545-53.419 69.973-130.219-162.577-53.965-72.192 23.654-116.531 86.221-98.987 139.708 17.51 53.453-7.27-13.414 64.956-37.069 72.26-23.723 214.153 4.71 196.608-48.674z" />
<glyph unicode="&#xe90d;" glyph-name="FSA-youtube" d="M433.493 861.013h-51.2l-34.133-119.467-40.96 119.467h-54.613c10.24-27.307 23.893-58.027 34.133-85.333 17.067-44.373 27.307-75.093 30.72-98.987v-126.293h51.2v126.293l64.853 184.32zM570.027 625.493v81.92c0 23.893-3.413 40.96-13.653 54.613-13.653 17.067-30.72 23.893-54.613 23.893s-40.96-6.827-54.613-23.893c-10.24-10.24-13.653-30.72-13.653-54.613v-81.92c0-23.893 3.413-40.96 13.653-54.613 13.653-17.067 30.72-23.893 54.613-23.893s40.96 6.827 54.613 23.893c10.24 13.653 13.653 30.72 13.653 54.613zM522.24 618.667c0-20.48-6.827-30.72-23.893-30.72s-20.48 10.24-20.48 30.72v95.573c0 20.48 6.827 30.72 23.893 30.72 13.653 0 23.893-10.24 23.893-30.72l-3.413-95.573zM744.107 550.4v232.107h-47.787v-174.080c-10.24-13.653-20.48-20.48-30.72-20.48-6.827 0-10.24 3.413-10.24 10.24 0 0 0 6.827 0 17.067v170.667h-47.787v-180.907c0-17.067 0-27.307 3.413-34.133 3.413-10.24 13.653-17.067 30.72-17.067s34.133 10.24 54.613 27.307v-30.72h47.787zM597.333 321.707c-6.827 0-17.067-3.413-23.893-10.24v-139.947c10.24-6.827 17.067-10.24 23.893-10.24 13.653 0 20.48 10.24 20.48 30.72v98.987c0 20.48-6.827 30.72-20.48 30.72zM880.64 434.347c-10.24 37.547-40.96 64.853-81.92 68.267-95.573 10.24-191.147 10.24-286.72 10.24s-191.147 0-286.72-10.24c-40.96-6.827-71.68-30.72-81.92-68.267-13.653-51.2-13.653-109.227-13.653-160.427s0-109.227 13.653-160.427c10.24-37.547 40.96-64.853 81.92-68.267 95.573-10.24 191.147-10.24 286.72-10.24s191.147 0 286.72 10.24c37.547 6.827 71.68 30.72 81.92 68.267 13.653 51.2 13.653 105.813 13.653 160.427 0 51.2 0 109.227-13.653 160.427zM348.16 386.56h-54.613v-262.827h-51.2v262.827h-54.613v44.373h160.427v-44.373zM491.52 127.147h-51.2v23.893c-17.067-20.48-37.547-27.307-51.2-27.307s-23.893 6.827-30.72 17.067c-3.413 6.827-3.413 17.067-3.413 34.133v180.907h47.787v-167.253c0-10.24 0-13.653 0-17.067 0-6.827 3.413-10.24 10.24-10.24 10.24 0 20.48 6.827 30.72 20.48v174.080h47.787v-228.693zM662.187 195.413c0-23.893 0-37.547-3.413-44.373-6.827-13.653-20.48-23.893-37.547-23.893s-30.72 6.827-47.787 23.893v-20.48h-47.787v303.787h47.787v-98.987c13.653 17.067 30.72 23.893 47.787 23.893 20.48 0 30.72-10.24 37.547-27.307 3.413-6.827 3.413-23.893 3.413-44.373v-92.16zM836.267 232.96h-92.16v-40.96c0-20.48 6.827-30.72 23.893-30.72 10.24 0 17.067 6.827 20.48 17.067 0 0 0 10.24 0 27.307h47.787v-6.827c0-13.653 0-23.893-3.413-30.72 0-6.827-3.413-17.067-10.24-23.893-10.24-17.067-30.72-23.893-54.613-23.893s-40.96 6.827-54.613 23.893c-10.24 13.653-13.653 30.72-13.653 54.613v78.507c0 23.893 3.413 44.373 13.653 54.613 13.653 17.067 30.72 23.893 54.613 23.893s40.96-6.827 54.613-23.893c10.24-13.653 13.653-30.72 13.653-54.613v-44.373zM768 318.293c-17.067 0-23.893-10.24-23.893-30.72v-20.48h47.787v20.48c0 20.48-10.24 30.72-23.893 30.72z" />
</font></defs></svg>