<?xml version="1.0" encoding="utf-8"?>
<!-- Generator: Adobe Illustrator 21.0.0, SVG Export Plug-In . SVG Version: 6.00 Build 0)  -->
<svg version="1.1" id="key" xmlns="http://www.w3.org/2000/svg" xmlns:xlink="http://www.w3.org/1999/xlink" x="0px" y="0px"
	 width="110px" height="104px" viewBox="0 0 110 104" enable-background="new 0 0 110 104" xml:space="preserve">
<g>
	<path fill="#263950" d="M80.7,57.1l-7,7.7c-0.5,0.6-1.3,0.9-2.1,0.8c-0.8-0.1-1.5-0.5-1.9-1.2l-5.7-10l-5.5,7.3
		c-0.6,0.8-1.6,1.1-2.5,1c-0.9-0.2-1.7-0.9-1.9-1.8L49.9,44l-5.5,25.9c-0.2,1.1-1.2,1.9-2.3,2c-0.1-0.1-0.1-0.1-0.2-0.1
		c-1.1,0-2-0.7-2.4-1.7l-6.3-19.9l-4.8,6.1c-0.5,0.6-1.2,0.9-2,0.9h-1.3c11.7,15.9,28.3,37.4,29.7,37.4c1.5,0,18.2-21.6,29.9-37.5
		H80.7z"/>
	<path fill="#263950" d="M76.3,11.2c-8.7,0-16.3,5.2-19.6,12.8c0,0-0.6,1.7-1.8,1.7c-1.3,0-1.8-1.7-1.8-1.7
		c-3.3-7.5-10.8-12.8-19.6-12.8C21.6,11.1,12,20.7,12,32.5c0,2.7,0,4.9,1.7,8.3c0.7,1.4,3.7,5.8,7.8,11.4h3.7l7-8.8
		c0.6-0.7,1.5-1.1,2.4-0.9s1.6,0.8,1.9,1.7l4.9,15.3l5.8-27.3c0.2-1.1,1.2-2,2.4-2s2.2,0.8,2.5,1.9l5.5,22.3l4.6-6.1
		c0.5-0.7,1.3-1,2.1-1s1.6,0.5,2,1.2l6,10.4l5.5-6c0.5-0.5,1.1-0.8,1.8-0.8h8.6c0,0,0.1,0,0.1,0c4-5.6,7-9.8,7.7-11.2
		c1.1-2.6,1.7-5.4,1.7-8.3C97.7,20.8,88.1,11.2,76.3,11.2z"/>
</g>
</svg>
