<?xml version="1.0" encoding="utf-8"?>
<!-- Generator: Adobe Illustrator 22.0.1, SVG Export Plug-In . SVG Version: 6.00 Build 0)  -->
<svg version="1.1" id="Layer_2_1_" xmlns="http://www.w3.org/2000/svg" xmlns:xlink="http://www.w3.org/1999/xlink" x="0px" y="0px"
	 width="110px" height="104px" viewBox="0 0 110 104" style="enable-background:new 0 0 110 104;" xml:space="preserve">
<style type="text/css">
	.st0{fill:#263950;}
</style>
<g>
	<g>
		<path class="st0" d="M21.7,94.6h19.8V66.8H21.7V94.6z M25.4,70.4h12.5V91H25.4V70.4z"/>
		<path class="st0" d="M69,30.4v64.2h19.8V30.4H69z M85.1,91H72.6V34.1h12.5V91z"/>
		<path class="st0" d="M45.4,94.6h19.8V49.3H45.4V94.6z M49,52.9h12.5V91H49V52.9z"/>
		<rect x="71.1" y="32.7" class="st0" width="15.3" height="58.4"/>
		<rect x="23.8" y="68.9" class="st0" width="15.3" height="22.2"/>
		<rect x="47.4" y="52.2" class="st0" width="15.3" height="38.9"/>
	</g>
	<polygon class="st0" points="84.6,10.5 80.9,11.6 82,12.9 56.9,32.8 49,27.6 21.2,49.6 24,52.8 49.2,32.4 57,38.1 83.5,14.8 
		84.5,16.1 86.4,12.8 88.3,9.4 	"/>
</g>
</svg>
