<?xml version="1.0" encoding="utf-8"?>
<!-- Generator: Adobe Illustrator 21.0.0, SVG Export Plug-In . SVG Version: 6.00 Build 0)  -->
<svg version="1.1" id="Layer_1" xmlns="http://www.w3.org/2000/svg" xmlns:xlink="http://www.w3.org/1999/xlink" x="0px" y="0px"
	 width="96px" height="96px" viewBox="0 0 96 96" enable-background="new 0 0 96 96" xml:space="preserve">
<path fill="#324357" d="M93,96H3c-1.7,0-3-1.3-3-3V3c0-1.7,1.3-3,3-3h90c1.7,0,3,1.3,3,3v90C96,94.7,94.7,96,93,96z"/>
<path id="TV" fill="#D9DDE0" d="M65,61H51v2h3v3H43v-3h3v-2H32c-1.1,0-2-0.9-2-2V39c0-1.1,0.9-2,2-2h15.9l-4-4H43v-2h2v1.6l3.5,3.5
	l3.5-3.5V31h2v2h-0.9l-4,4H65c1.1,0,2,0.9,2,2v20C67,60.1,66.1,61,65,61z M64,40H33v18h31V40z"/>
</svg>
